<?xml version="1.0" encoding="utf-8"?>
<!-- Generator: Adobe Illustrator 24.0.2, SVG Export Plug-In . SVG Version: 6.00 Build 0)  -->
<svg version="1.1" id="Layer_1" xmlns="http://www.w3.org/2000/svg" xmlns:xlink="http://www.w3.org/1999/xlink" x="0px" y="0px"
	 viewBox="0 0 720.3 226.1" style="enable-background:new 0 0 720.3 226.1;" xml:space="preserve">
<style type="text/css">
	.st0{fill:#E4002B;}
</style>
<g>
	<g>
		<path class="st0" d="M117.4,128.5c-3.8,16.9-7.4,33.9-11.3,50.8c-1.7,7.5,1.8,12.5,7.9,15.1c11.5,5.1,4.3,13,3.8,20
			c-0.6,7.9-5.7,8.8-12.3,8.7c-30.5-0.2-60.9,0-91.4-0.1c-4.8,0-12.1,1.6-11.8-5.7c0.3-7-1.4-17.2,8.3-19.7
			c12.4-3.2,18.8-11.7,21.3-22.5c9.9-41.7,19.1-83.6,28.2-125.5c1.7-8-1.4-15-9.3-18.3c-11.1-4.5-4.5-12.3-4-18.9
			c0.5-6.9,5.1-8.7,11.4-8.6c28.5,0.2,57,0,85.5,0.2c5,0,12.9-2.6,13.5,5c0.6,6.8,0.8,16.6-6.6,19.8c-12.6,5.4-15.3,15.4-17.5,26.8
			c-2.8,14.4-6.1,28.8-9.2,43.1c5.5,1.6,7.5-2.1,10-4.1c20.5-16.9,40.9-33.9,61.3-50.8c5.5-4.6,10.5-8.5,1.2-15.1
			c-7-4.9-1.2-12.2-0.3-18.3C197,4,202,3.9,206.9,3.9c26.6,0,53.1,0,79.7,0c4.5,0,11.3-1,10.7,5.6c-0.6,7,1.7,17.7-8.6,19.3
			c-17.7,2.7-30.6,12.6-43.5,23.6c-17.5,15-35.2,29.7-53.2,44.1c-5.2,4.1-6.5,6.8-1.9,12.7c18,23.5,35.4,47.6,53.1,71.4
			c6.7,8.9,14,16.9,26.5,16.9c4.8,0,7.9,3.1,6.3,7.6c-2.2,6.3,1.1,17.5-9.4,17.6c-23.3,0.3-46.9,2.9-70-2.7
			c-16.7-4.1-28.8-15.1-38.9-28.5c-13.9-18.4-24.6-38.8-35.8-58.9C120.9,131,120.4,128.9,117.4,128.5z M126.3,100.3
			c-0.3-0.3-0.6-0.8-0.8-0.7c-0.5,0.1-1,0.5-1.6,0.7c0.3,0.3,0.6,0.8,0.8,0.7C125.2,101,125.7,100.6,126.3,100.3z"/>
		<path class="st0" d="M411.4,3.9c26.9,0,53.9,0,80.8,0c17.6,0,17.6,0.1,14,16.8c-2.9,13.3-6,26.6-8.8,40c-2.8,13.7-13.5,6.8-20.9,8
			c-7.9,1.3-8.2-4.3-8.4-10.4c-0.4-12.5-5.6-17.5-18.3-17.7c-13.7-0.3-27.3-0.1-41-0.1c-4,0-7.5-0.3-8.6,5.3
			c-2.9,15.3-6.2,30.6-9.9,45.7c-1.7,6.9,1.8,7,6.6,6.9c18.4-0.1,36.7,0.3,55.1-0.1c8.5-0.2,10.9,2.7,9.4,11.1
			c-5.2,29.7-4.9,29.7-35.2,29.7c-12.9,0-25.8,0.2-38.7-0.1c-5.6-0.1-8.5,1.3-9.4,7.3c-1.4,8.8-3.7,17.5-5.7,26.3
			c-2.3,9.7-0.7,17.7,8.8,23c9.9,5.5,2,13.2,1.8,19.8c-0.2,6.3-4.6,7.9-10.6,7.9c-24.6-0.2-49.2-0.2-73.8,0
			c-8.4,0.1-10.9-2.8-9-11.4C301.3,160,312.3,108.1,324,56.4c2.6-11.6,2.2-20.6-9.9-26.4c-9.1-4.4-2.2-11.7-1.9-17.6
			c0.3-6.8,5.1-8.6,11.5-8.5C352.8,4,382.1,3.9,411.4,3.9z"/>
		<path class="st0" d="M619.1,225.8c-22.8,0.3-45.1-2.5-66.5-11.2c-45.1-18.2-67.1-58.9-57.5-106.5c9.6-47.7,37.5-79.9,83.3-95.6
			c42-14.4,84.8-15.5,128.1-5.9C716,8.7,720,12.1,717,22.5c-3.9,13.8-6.8,28-9.5,42.2C705,77.9,695,72,687.9,73.1
			c-7.6,1.1-8.6-3.7-9-10.1c-0.9-14-8-22.1-22-25c-25.1-5.2-46.6,2.7-63.5,21.3c-19.8,21.8-26.8,48.2-21.7,77.2
			c5.1,29,31.6,47.9,67.2,48.9c16.1,0.5,31.9-1.8,47.5-5.9c11.7-3.1,14.1-1.4,11.7,9.9c-6.1,29.7,1.8,25.4-31.3,32.2
			C651.1,224.7,635.1,225.9,619.1,225.8z"/>
	</g>
	<path class="st0" d="M126.3,100.3c-0.6,0.3-1.1,0.6-1.6,0.7c-0.2,0-0.5-0.5-0.8-0.7c0.5-0.3,1-0.6,1.6-0.7
		C125.7,99.6,126,100.1,126.3,100.3z"/>
</g>
</svg>
